<svg width="101" height="49" viewBox="0 0 101 49" fill="none" xmlns="http://www.w3.org/2000/svg">
<path fill-rule="evenodd" clip-rule="evenodd" d="M3.95405 42.9988L3.77956 44.2639C3.70021 44.8872 4.21626 45.4347 4.88721 45.4347H48.1128C48.7837 45.4347 49.2998 44.8872 49.2245 44.2639L49.0459 42.9988C48.9386 42.0134 49.693 41.1145 50.7251 41.0106C51.7653 40.9031 52.6825 41.6243 52.7896 42.6061L52.9564 43.8372C53.2937 46.5866 51.6542 49 48.7321 49H4.26789C1.34581 49 -0.293667 46.5866 0.0435982 43.8372L0.210438 42.6061C0.321585 41.6243 1.23466 40.9031 2.27084 41.0106C3.30701 41.1145 4.06114 42.0134 3.95405 42.9988Z" fill="#001489"/>
<path fill-rule="evenodd" clip-rule="evenodd" d="M49.077 18.8669C49.077 20.6239 48.4674 21.6188 47.4582 22.844L47.3573 22.9672L47.497 23.0543C49.4963 24.2992 50.89 26.1782 50.9947 28.8192C51.1499 32.7524 47.885 36.0078 44.011 36H33.7976C32.8038 36 32 35.1551 32 34.1162V13.883C32 12.8405 32.8038 12 33.7936 12L42.2252 12.0236C45.9016 12.0275 49.077 14.7871 49.077 18.8669ZM43.9916 32.3556C46.0491 32.3599 47.6873 30.8292 47.6445 28.8149C47.6017 26.7531 45.7656 25.421 43.7158 25.4174H39.5778C38.6616 25.4174 37.9085 24.6401 37.9085 23.6647C37.9085 22.6893 38.6578 21.9082 39.5778 21.9082H42.3418C44.205 21.8327 45.6415 20.6792 45.7308 18.879C45.8238 16.9521 44.2013 15.5047 42.2174 15.5047H35.5096L35.4822 32.3556H43.9916Z" fill="#001489"/>
<path fill-rule="evenodd" clip-rule="evenodd" d="M14.9529 29.058L14.9998 29.2009L15.0506 29.058C15.5279 27.7246 16.1028 26.2479 16.7129 24.6368C17.3425 22.9421 17.9681 21.3227 18.5939 19.7788C19.2275 18.211 19.8258 16.8143 20.3965 15.5956C20.9674 14.3494 21.4407 13.4964 21.8045 13.0278C22.3674 12.3455 23.1107 12 24.0372 12H24.4636C25.0306 12 25.4725 12.1508 25.805 12.4363C26.1099 12.7061 26.29 13.016 26.3406 13.3731L29 34.301C29 34.8406 28.8474 35.2573 28.5463 35.5672C28.2452 35.8566 27.815 36 27.252 36C26.6888 36 26.2429 35.8645 25.9144 35.599C25.5507 35.3331 25.3435 34.9839 25.2926 34.5512C25.2027 33.8563 25.1208 33.0826 25.0383 32.2331C24.9211 31.3879 24.5067 27.7363 24.3892 26.8154C24.28 25.867 23.5329 19.9537 23.2788 17.8064L23.2553 17.6239L22.4027 19.4376C22.1131 20.0608 21.8005 20.8106 21.4562 21.684C21.1162 22.5572 20.768 23.4779 20.4278 24.4507C20.0563 25.3948 18.41 30.1692 18.41 30.1692C18.2574 30.6019 17.9681 31.4751 17.7062 32.277C17.4402 33.0747 17.1977 33.797 17.131 33.9361C16.7402 34.7259 15.9776 35.2456 15.0078 35.2537C14.0262 35.2494 13.2636 34.7259 12.8765 33.9361C12.8061 33.797 12.5636 33.0747 12.2978 32.277C12.0317 31.4751 11.7503 30.6019 11.5898 30.1692C11.5898 30.1692 9.94351 25.3948 9.57574 24.4507C9.23151 23.4779 8.88752 22.5572 8.54353 21.684C8.19931 20.8106 7.88663 20.0608 7.6048 19.4376L6.74847 17.6239L6.72893 17.8064C6.47088 19.9537 5.72781 25.867 5.61432 26.8154C5.49707 27.7363 5.08244 31.3879 4.96919 32.2331C4.88325 33.0826 4.79708 33.8563 4.70714 34.5512C4.65628 34.9839 4.44908 35.3331 4.08932 35.599C3.75663 35.8645 3.31116 36 2.74773 36C2.18478 36 1.75838 35.8566 1.45748 35.5672C1.15634 35.2573 1.00377 34.837 1 34.301L3.65892 13.3731C3.71755 13.016 3.89366 12.7061 4.19857 12.4363C4.52725 12.1508 4.97696 12 5.53615 12H5.96631C6.89327 12 7.63611 12.3455 8.1953 13.0278C8.56308 13.4964 9.03232 14.3494 9.60329 15.5956C10.178 16.8143 10.7765 18.211 11.4061 19.7788C12.0317 21.3227 12.6613 22.9421 13.2911 24.6368C13.9009 26.2479 14.4759 27.7246 14.9529 29.058Z" fill="#001489"/>
<path fill-rule="evenodd" clip-rule="evenodd" d="M10.1296 0H42.8704C45.9545 0 47.4905 2.46488 47.8509 5.71468L47.9894 6.75532C48.1002 7.87182 47.3284 8.87061 46.2987 8.98858C45.2657 9.10654 44.3392 8.29752 44.2321 7.18102L44.1015 6.18553C43.963 4.95106 43.4723 3.9987 42.2926 3.9987H10.7079C9.52799 3.9987 9.03696 4.95106 8.89848 6.18553L8.77191 7.18102C8.66489 8.29752 7.73862 9.10654 6.70128 8.98858C5.66799 8.87061 4.9 7.87182 5.0106 6.75532L5.14933 5.71468C5.51354 2.46488 7.04571 0 10.1296 0Z" fill="#001489"/>
<path fill-rule="evenodd" clip-rule="evenodd" d="M69.0247 22.1404C68.7907 22.9937 68.5486 23.9052 68.2941 24.8744C68.0398 25.8398 67.7851 26.7669 67.535 27.6509C67.2885 28.5357 67.055 29.3076 66.8291 29.9761C66.6075 30.6444 66.419 31.0997 66.2707 31.3468C66.0083 31.7833 65.5445 32 64.8838 32C64.699 32 64.4611 31.9649 64.1614 31.8919C63.8661 31.8219 63.6198 31.6252 63.4186 31.3006C63.2709 31.0534 63.0861 30.5749 62.8607 29.8599C62.6388 29.1456 62.4051 28.3268 62.1548 27.3963C61.9087 26.4653 61.6626 25.4805 61.4121 24.4421C61.166 23.403 60.9402 22.4415 60.7432 21.5456C60.5458 20.6571 60.3778 19.8923 60.2466 19.2671C60.1154 18.6372 60.041 18.2665 60.0247 18.1389C60.0082 18.0617 60 18.0078 60 17.9768V17.8843C60 17.6218 60.1028 17.4055 60.3205 17.2435C60.5337 17.0807 60.8005 17 61.1124 17C61.4121 17 61.65 17.0616 61.8348 17.1774C62.0152 17.2897 62.1467 17.4981 62.2287 17.7915C62.2287 17.8224 62.2779 18.0503 62.3641 18.4672C62.4582 18.8846 62.5731 19.4215 62.7132 20.07C62.8565 20.7231 63.0124 21.4488 63.1847 22.2562C63.3574 23.0632 63.5377 23.882 63.731 24.7123C63.9195 25.5387 64.1122 26.3381 64.3012 27.1182C64.49 27.8904 64.6662 28.5589 64.8347 29.1146C64.9987 28.5898 65.1791 27.9871 65.3802 27.3114C65.5772 26.6392 65.7785 25.9402 65.9755 25.2222C66.1724 24.4998 66.3614 23.7817 66.5457 23.0591C66.7263 22.3371 66.8946 21.6653 67.055 21.0473C67.2109 20.4255 67.346 19.877 67.4612 19.3982C67.5761 18.9155 67.6662 18.56 67.7359 18.3247C67.818 18.0308 67.9744 17.7992 68.2039 17.6294C68.4418 17.4595 68.7168 17.3706 69.0494 17.3706C69.4104 17.3706 69.7101 17.4632 69.9436 17.6408C70.1694 17.8187 70.3216 18.0503 70.3871 18.3247C70.5719 19.0855 70.7689 19.9351 70.9821 20.8734C71.1956 21.8081 71.4214 22.7579 71.651 23.7199C71.8852 24.6814 72.1273 25.6238 72.3692 26.5464C72.6195 27.4698 72.8575 28.2882 73.0914 28.9988C73.2558 28.4426 73.4361 27.7746 73.6254 27.0024C73.8139 26.2223 74.0066 25.4266 74.2038 24.6042C74.4047 23.7852 74.5935 22.9707 74.7743 22.1636C74.9587 21.3603 75.1227 20.6341 75.2747 19.9891C75.4224 19.3478 75.5415 18.823 75.632 18.4209C75.7221 18.0154 75.7676 17.8071 75.7676 17.7915C75.8496 17.4981 75.9808 17.2897 76.1652 17.1774C76.346 17.0616 76.5879 17 76.8837 17C77.1955 17 77.4623 17.0807 77.6756 17.2435C77.8933 17.4055 78 17.6218 78 17.8843V17.9768C78 18.0078 77.9918 18.0617 77.9753 18.1389C77.9627 18.2665 77.8807 18.6372 77.7369 19.2671C77.6017 19.8923 77.4295 20.6571 77.2321 21.5456C77.0314 22.4415 76.8098 23.3992 76.5595 24.4302C76.3171 25.461 76.071 26.442 75.8331 27.3691C75.5909 28.2999 75.3612 29.1188 75.1353 29.8255C74.9137 30.5284 74.7252 31.0071 74.5769 31.2543C74.38 31.5789 74.1302 31.7875 73.8223 31.8723C73.5142 31.9572 73.2721 32 73.0914 32C73.0215 32 72.9274 31.9921 72.792 31.9767C72.6605 31.9572 72.5212 31.9305 72.3692 31.8819C72.2215 31.8372 72.0737 31.7642 71.9262 31.6638C71.774 31.5594 71.6594 31.4245 71.5773 31.2543C71.4296 30.9609 71.249 30.4702 71.0439 29.7906C70.8383 29.107 70.613 28.3385 70.3745 27.4774C70.1366 26.616 69.8989 25.7163 69.6691 24.7781C69.4388 23.8394 69.2216 22.9588 69.0247 22.1404Z" fill="#001489"/>
<path fill-rule="evenodd" clip-rule="evenodd" d="M86.1988 25.6738C85.8765 24.666 85.5735 23.739 85.2816 22.897C84.9896 22.0513 84.694 21.2479 84.3871 20.4874C84.3114 20.3174 84.2315 20.1239 84.1482 19.8923C84.0649 19.6721 84.0159 19.5373 84.0006 19.491C83.9855 19.5024 83.9326 19.6335 83.8527 19.8733C83.7653 20.1128 83.6859 20.3174 83.6101 20.4874C83.3057 21.2479 83.0104 22.0513 82.7259 22.897C82.4457 23.739 82.1426 24.666 81.8238 25.6738H86.1988ZM81.1153 27.6974C80.8839 28.4426 80.6833 29.1302 80.5088 29.7636C80.3308 30.3991 80.1678 30.9223 80.0161 31.3236C79.8454 31.7756 79.512 32 79.0079 32C78.6556 32 78.4014 31.9109 78.2387 31.7333C78.0792 31.5517 78 31.3236 78 31.0457C78 30.9376 78.0151 30.8374 78.0454 30.7407C78.0758 30.6521 78.1702 30.3314 78.3332 29.7906C78.4924 29.25 78.701 28.5743 78.9625 27.7669C79.2201 26.9599 79.5081 26.0756 79.8192 25.1178C80.1338 24.1563 80.4556 23.2062 80.7931 22.2676C81.1269 21.3293 81.4562 20.4523 81.7784 19.6412C82.0972 18.8265 82.3961 18.1698 82.6693 17.6757C82.7941 17.4132 82.9573 17.2316 83.162 17.1388C83.3705 17.0463 83.648 17 84.0006 17C84.3381 17 84.6219 17.0577 84.8572 17.1621C85.0957 17.2744 85.2588 17.4595 85.3499 17.722C85.566 18.1852 85.8236 18.8111 86.1191 19.5912C86.4149 20.3751 86.7295 21.2212 87.0554 22.1285C87.3851 23.036 87.7076 23.9629 88.0293 24.9053C88.3515 25.8512 88.6475 26.7317 88.9127 27.547C89.1778 28.3578 89.4092 29.053 89.5986 29.6283C89.788 30.2038 89.9092 30.5749 89.9546 30.7407C89.9813 30.8374 90 30.9376 90 31.0457C90 31.3236 89.9092 31.5517 89.7237 31.7333C89.5416 31.9109 89.2727 32 88.9238 32C88.6626 32 88.4691 31.9419 88.3362 31.8219C88.2116 31.71 88.1051 31.5403 88.0293 31.3236C87.8778 30.9223 87.6959 30.3991 87.4912 29.7636C87.2868 29.1302 87.0666 28.4426 86.8393 27.6974H81.1153Z" fill="#001489"/>
<path fill-rule="evenodd" clip-rule="evenodd" d="M94.9905 26.1374C94.9163 26.0637 94.8455 25.9747 94.7789 25.8821C94.7085 25.7935 94.6379 25.6814 94.5637 25.558C94.3518 25.249 94.1292 24.8744 93.8805 24.4302C93.6322 23.9901 93.3868 23.5188 93.1385 23.0246C92.8931 22.5264 92.6558 22.0241 92.4256 21.5223C92.1916 21.0201 91.98 20.5527 91.7985 20.1204C91.609 19.684 91.4492 19.3057 91.3156 18.9927C91.1781 18.6721 91.093 18.4481 91.0668 18.3247C91.0371 18.2475 91.0188 18.1894 91.0114 18.1508C91.0076 18.1122 91 18.054 91 17.9768C91 17.699 91.093 17.4632 91.2785 17.282C91.468 17.0925 91.7243 17 92.0542 17C92.3514 17 92.5628 17.0772 92.6929 17.2316C92.8189 17.3902 92.9155 17.5446 92.9713 17.699C93.0008 17.7801 93.0753 17.9459 93.1866 18.2084C93.2979 18.4751 93.4353 18.7997 93.5984 19.1857C93.7618 19.5717 93.9511 20.0005 94.1589 20.4641C94.3742 20.9315 94.5824 21.387 94.801 21.8388C95.0167 22.2871 95.2279 22.7159 95.4283 23.129C95.629 23.5383 95.8221 23.8743 96 24.141C96.2861 23.689 96.5902 23.1251 96.9208 22.4415C97.247 21.7581 97.5628 21.0859 97.8601 20.4216C98.1602 19.7535 98.4165 19.1627 98.6355 18.6525C98.8508 18.1389 98.9808 17.8224 99.0289 17.699C99.0883 17.5446 99.1813 17.3902 99.3073 17.2316C99.4336 17.0772 99.6488 17 99.9461 17C100.276 17 100.532 17.0925 100.722 17.282C100.907 17.4632 101 17.699 101 17.9768C101 18.054 100.996 18.1122 100.989 18.1508C100.981 18.1894 100.963 18.2475 100.937 18.3247C100.889 18.4481 100.803 18.6721 100.677 19.0004C100.551 19.3248 100.391 19.707 100.202 20.1395C100.016 20.5722 99.8084 21.0431 99.5784 21.5456C99.3444 22.0513 99.1071 22.5496 98.8622 23.0479C98.6134 23.542 98.3685 24.0171 98.1197 24.4651C97.8748 24.913 97.6444 25.2955 97.4366 25.6042C97.3029 25.8049 97.1581 25.9865 97.0097 26.1374V30.9532C97.0097 31.262 96.9172 31.5131 96.7277 31.71C96.5422 31.8996 96.3008 32 96 32C95.6994 32 95.4585 31.8996 95.2726 31.71C95.0835 31.5131 94.9905 31.262 94.9905 30.9532V26.1374Z" fill="#001489"/>
</svg>
