<svg width="53" height="60" viewBox="0 0 53 60" fill="none" xmlns="http://www.w3.org/2000/svg">
<path d="M46.2953 30.1283C45.5443 32.9323 37.3113 49.4933 34.5073 48.7423C31.7033 47.9903 32.8533 29.5323 33.6053 26.7283L39.7223 3.89634C40.4733 1.09234 43.3563 -0.570659 46.1593 0.180341L48.6973 0.860341C51.5013 1.61134 53.1653 4.49234 52.4143 7.29634L46.2953 30.1283Z" fill="#1D19FF"/>
<path d="M22.9133 59.6853C17.2323 59.6853 13.8593 58.5733 12.3773 56.2373C11.4873 54.8393 10.9293 52.4603 13.3123 49.0713C14.3733 47.5623 14.3603 46.8653 14.2983 46.7603C14.2913 46.7483 13.5263 45.5433 8.59626 45.2803C5.64526 45.1233 2.93826 45.4103 2.91126 45.4133C1.46626 45.5673 0.172264 44.5253 0.015264 43.0833C-0.139736 41.6403 0.903265 40.3443 2.34627 40.1873C2.47327 40.1733 5.50626 39.8533 8.87626 40.0323C14.1253 40.3133 17.3793 41.6403 18.8233 44.0923C19.7423 45.6493 20.2763 48.3013 17.6093 52.0943C17.0783 52.8513 16.9283 53.2923 16.8863 53.4823C17.4243 53.8903 19.6903 54.6583 25.3543 54.3643C29.4893 54.1483 33.2833 53.4893 33.3203 53.4823C34.7503 53.2313 36.1113 54.1863 36.3623 55.6163C36.6133 57.0463 35.6583 58.4073 34.2283 58.6583C34.0523 58.6883 29.8743 59.4163 25.2923 59.6283C24.4593 59.6663 23.6653 59.6853 22.9133 59.6853Z" fill="#1D19FF"/>
</svg>
