<?xml version="1.0" encoding="UTF-8"?>
<svg width="172px" height="200px" viewBox="0 0 172 200" version="1.1" xmlns="http://www.w3.org/2000/svg" xmlns:xlink="http://www.w3.org/1999/xlink">
    <!-- Generator: Sketch 61.2 (89653) - https://sketch.com -->
    <title>cmd</title>
    <desc>Created with Sketch.</desc>
    <g id="Page-1" stroke="none" stroke-width="1" fill="none" fill-rule="evenodd">
        <g id="cmd" fill="#FFFFFF" fill-rule="nonzero">
            <path d="M100,0 C44.771,0 0,44.771 0,100 C0,155.229 44.771,200 100,200 C101.973,200 103.571,198.401 103.571,196.429 L103.571,167.858 C103.571,165.885 101.972,164.287 100,164.287 C64.496,164.287 35.714,135.503 35.714,100.001 C35.714,64.498 64.496,35.715 100,35.715 C101.973,35.715 103.571,34.116 103.571,32.144 L103.571,3.571 C103.571,1.599 101.973,0 100,0 Z" id="Path"></path>
            <path d="M110.714,39.286 C108.741,39.286 107.143,40.885 107.143,42.857 L107.143,60.714 C107.143,68.603 113.538,75 121.428,75 C129.318,75 135.714,68.604 135.714,60.714 L135.714,42.857 C135.714,40.884 134.115,39.286 132.143,39.286 L110.714,39.286 Z" id="Path"></path>
            <path d="M107.143,85.714 C107.143,83.741 108.742,82.143 110.714,82.143 L132.143,82.143 C134.116,82.143 135.714,83.742 135.714,85.714 L135.714,103.571 C135.714,111.462 129.318,117.857 121.428,117.857 C113.538,117.857 107.143,111.461 107.143,103.571 L107.143,85.714 Z" id="Path"></path>
            <path d="M75.0002,82.143 C73.0272,82.143 71.4292,83.742 71.4292,85.714 L71.4292,103.571 C71.4292,111.462 77.8252,117.857 85.7152,117.857 C93.6062,117.857 100.001,111.461 100.001,103.571 L100.001,85.714 C100.001,83.741 98.4012,82.143 96.4292,82.143 L75.0002,82.143 Z" id="Path"></path>
            <path d="M142.857,85.714 C142.857,83.741 144.456,82.143 146.428,82.143 L167.857,82.143 C169.83,82.143 171.428,83.742 171.428,85.714 L171.428,103.571 C171.428,111.462 165.033,117.857 157.143,117.857 C149.253,117.857 142.857,111.461 142.857,103.571 L142.857,85.714 Z" id="Path"></path>
            <path d="M110.714,125 C108.741,125 107.143,126.599 107.143,128.571 L107.143,146.428 C107.143,154.319 113.538,160.713 121.428,160.713 C129.318,160.713 135.714,154.318 135.714,146.428 L135.714,128.571 C135.714,126.598 134.115,125 132.143,125 L110.714,125 Z" id="Path"></path>
        </g>
    </g>
</svg>